Name,WeightClassKg,Division,Sex,Age,Best3SquatKg,Best3BenchKg,Best3DeadliftKg,TotalKg,Event,Equipment,Place
Mansoor Ijaz,52,Open,M,,131.54,72.57,147.42,351.53,SBD,Single-ply,1
Judy Mays,52,Open,F,48,74.84,34.02,99.79,208.65,SBD,Single-ply,3
Betty Stevens,52,Open,F,,70.31,38.56,92.99,201.85,SBD,Single-ply,4
Alice Millirons,52,Open,F,,56.7,38.56,90.72,185.97,SBD,Single-ply,5
T. Shuler,52,Open,M,,58.97,38.56,79.38,176.9,SBD,Single-ply,6
Mike Thompson #1,52,Open,M,14,127.01,65.77,136.08,328.85,SBD,Single-ply,2
Gerald Ringi,56,Open,M,,185.97,111.13,172.37,469.47,SBD,Single-ply,1
Sammy Williams,56,Open,M,,113.4,74.84,145.15,333.39,SBD,Single-ply,2
Blane Coleman,56,Open,M,,99.79,83.91,120.2,303.91,SBD,Single-ply,3
B. Kirby,56,Open,M,,74.84,58.97,99.79,233.6,SBD,Single-ply,5
S. Collier,56,Open,M,14,74.84,56.7,124.74,256.28,SBD,Single-ply,4
Charles Foster,60,Open,M,,156.49,115.67,181.44,453.59,SBD,Single-ply,1
Charles Groome,60,Open,M,,136.08,90.72,156.49,383.29,SBD,Single-ply,2
Trey Bane,60,Open,M,,113.4,77.11,156.49,347,SBD,Single-ply,3
Ronny Snoddy,60,Open,M,,113.4,79.38,145.15,337.93,SBD,Single-ply,4
Robert Hildebrand,67.5,Open,M,,210.92,142.88,240.4,594.21,SBD,Single-ply,1
Ken Dube,67.5,Open,M,,195.04,113.4,260.82,569.26,SBD,Single-ply,2
Bill McCarty,67.5,Open,M,,199.58,131.54,204.12,535.24,SBD,Single-ply,3
Larry Eggleston,67.5,Open,M,,154.22,102.06,201.85,458.13,SBD,Single-ply,4
A. DeSharo,67.5,Open,M,,154.22,106.59,192.78,453.59,SBD,Single-ply,5
C. Alex,67.5,Open,M,,156.49,113.4,183.71,453.59,SBD,Single-ply,6
D. Sullivan,67.5,Open,M,,147.42,108.86,190.51,446.79,SBD,Single-ply,7
S. Woolwine,67.5,Open,M,,165.56,90.72,190.51,446.79,SBD,Single-ply,8
G. Banks,67.5,Open,M,,138.35,102.06,181.44,421.84,SBD,Single-ply,9
D. Banks,67.5,Open,M,,131.54,99.79,188.24,419.57,SBD,Single-ply,10
P. Williams,67.5,Open,M,,113.4,92.99,170.1,376.48,SBD,Single-ply,11
J. Bueck,67.5,Open,M,,120.2,77.11,165.56,362.87,SBD,Single-ply,12
J. Ryder,67.5,Open,M,,95.25,47.63,122.47,265.35,SBD,Single-ply,13
D. Beatty,67.5,Open,M,,,,,,SBD,Single-ply,DQ
K. McLaughlin,67.5,Open,M,,,,,,SBD,Single-ply,DQ
Ballard Poff,75,Open,M,,226.8,136.08,260.82,623.69,SBD,Single-ply,1
Allen Shank,75,Open,M,,231.33,151.95,226.8,610.08,SBD,Single-ply,2
Phil Stubbs,75,Open,M,,222.26,158.76,226.8,607.81,SBD,Single-ply,3
Glen Crockett,75,Open,M,,226.8,129.27,235.87,591.94,SBD,Single-ply,4
Burk Habecker,75,Open,M,,215.46,140.61,217.72,573.8,SBD,Single-ply,5
J. Sulc,75,Open,M,,201.85,138.35,217.72,557.92,SBD,Single-ply,6
J. Besswanger,75,Open,M,,204.12,124.74,215.46,544.31,SBD,Single-ply,7
L. Watson,75,Open,M,,181.44,127.01,226.8,535.24,SBD,Single-ply,8
F. Butler,75,Open,M,,192.78,113.4,215.46,521.63,SBD,Single-ply,9
D. Jamerson,75,Open,M,,201.85,113.4,199.58,514.83,SBD,Single-ply,10
J. Owens,75,Open,M,,185.97,120.2,204.12,510.29,SBD,Single-ply,11
J. Lange,75,Open,M,,163.29,111.13,204.12,478.54,SBD,Single-ply,12
J. Brill,75,Open,M,,165.56,111.13,192.78,469.47,SBD,Single-ply,13
C. Golubic,75,Open,M,,147.42,120.2,181.44,449.06,SBD,Single-ply,14
S. Setliff,75,Open,M,,142.88,113.4,192.78,449.06,SBD,Single-ply,15
T. Clare,75,Open,M,,136.08,131.54,176.9,444.52,SBD,Single-ply,16
G. Hall,75,Open,M,,149.69,106.59,163.29,419.57,SBD,Single-ply,17
C. Wilson,75,Open,M,,149.69,111.13,156.49,417.31,SBD,Single-ply,18
R. Lepley,75,Open,M,,136.08,111.13,163.29,410.5,SBD,Single-ply,19
D. Jarvis,75,Open,M,,113.4,108.86,158.76,381.02,SBD,Single-ply,20
James Barfield,82.5,Open,M,,226.8,147.42,260.82,635.03,SBD,Single-ply,1
Bill Clair,82.5,Open,M,,238.14,142.88,240.4,621.42,SBD,Single-ply,2
David Borden,82.5,Open,M,,254.01,140.61,226.8,621.42,SBD,Single-ply,3
Otie Howel,82.5,Open,M,,229.06,156.49,235.87,621.42,SBD,Single-ply,4
Allen Turissini,82.5,Open,M,,217.72,129.27,263.08,610.08,SBD,Single-ply,5
Geoff Jennings,82.5,Open,M,,217.72,149.69,240.4,607.81,SBD,Single-ply,6
B. Oden #3,82.5,Open,M,,217.72,145.15,226.8,589.67,SBD,Single-ply,7
E. Pearson,82.5,Open,M,,204.12,129.27,242.67,576.06,SBD,Single-ply,8
J. Davis,82.5,Open,M,,192.78,149.69,222.26,564.72,SBD,Single-ply,9
H. Cambell,82.5,Open,M,,201.85,124.74,226.8,553.38,SBD,Single-ply,10
F. Cooper,82.5,Open,M,,165.56,151.95,215.46,532.97,SBD,Single-ply,11
D. Roach,82.5,Open,M,,192.78,120.2,215.46,528.44,SBD,Single-ply,12
R. Kelly,82.5,Open,M,,172.37,127.01,226.8,526.17,SBD,Single-ply,13
G. Day,82.5,Open,M,,215.46,83.91,213.19,512.56,SBD,Single-ply,14
W. Turner,82.5,Open,M,,147.42,108.86,249.48,505.76,SBD,Single-ply,15
J. Shomier,82.5,Open,M,,156.49,154.22,190.51,501.22,SBD,Single-ply,16
R. Brooks,82.5,Open,M,,158.76,117.93,213.19,489.88,SBD,Single-ply,17
L. Crockett,82.5,Open,M,,181.44,113.4,185.97,480.81,SBD,Single-ply,18
T. Heimbuch,82.5,Open,M,,167.83,104.33,204.12,476.27,SBD,Single-ply,19
A. Licklider,82.5,Open,M,,176.9,102.06,183.71,462.66,SBD,Single-ply,20
N. Edwards,82.5,Open,M,,238.14,124.74,,,SBD,Single-ply,DQ
Jack Cooper,90,Open,M,,265.35,208.65,278.96,752.96,SBD,Single-ply,1
John Themides,90,Open,M,,263.08,176.9,251.74,691.73,SBD,Single-ply,2
Brian Miller,90,Open,M,,242.67,167.83,272.16,682.66,SBD,Single-ply,3
Doug Burnham,90,Open,M,,254.01,163.29,254.01,671.32,SBD,Single-ply,4
Greg Stratton,90,Open,M,,265.35,140.61,251.74,657.71,SBD,Single-ply,5
R. Keith,90,Open,M,,222.26,136.08,254.01,612.35,SBD,Single-ply,6
J. Richmond,90,Open,M,,229.06,145.15,238.14,612.35,SBD,Single-ply,7
C. Williams,90,Open,M,,201.85,151.95,254.01,607.81,SBD,Single-ply,8
T. Sulc,90,Open,M,,206.38,158.76,240.4,605.55,SBD,Single-ply,9
K. Laird,90,Open,M,,226.8,145.15,213.19,585.13,SBD,Single-ply,10
K. Clair,90,Open,M,,219.99,138.35,213.19,571.53,SBD,Single-ply,11
D. Arendt,90,Open,M,,204.12,124.74,222.26,551.12,SBD,Single-ply,13
T. Gonnelly,90,Open,M,,154.22,131.54,204.12,489.88,SBD,Single-ply,15
A. Comulada,90,Open,M,,172.37,161.03,199.58,532.97,SBD,Single-ply,14
E. Purcell,90,Open,M,,158.76,174.63,235.87,569.26,SBD,Single-ply,12
B. Cahill,90,Open,M,,183.71,133.81,,,SBD,Single-ply,DQ
M. Digges,90,Open,M,,204.12,124.74,,,SBD,Single-ply,DQ
R. Tickle,90,Open,M,,215.46,,,,SBD,Single-ply,DQ
J. Santory,90,Open,M,,,,,,SBD,Single-ply,DQ
Dave Colangelo,100,Open,M,,320,172.5,300,792.5,SBD,Single-ply,1
Barry Walker,100,Open,M,,272.5,177.5,272.5,722.5,SBD,Single-ply,2
Bill Fox,100,Open,M,,240,190,265,695,SBD,Single-ply,3
Bradley Phillips,100,Open,M,,252.5,150,280,682.5,SBD,Single-ply,4
Jerry Hoffman,100,Open,M,,240,182.5,260,682.5,SBD,Single-ply,5
Ivan Minter,100,Open,M,,235,160,277.5,672.5,SBD,Single-ply,6
G. Perkins,100,Open,M,,237.5,182.5,227.5,647.5,SBD,Single-ply,7
C. Falvello,100,Open,M,,240,165,240,645,SBD,Single-ply,8
G. Gehring,100,Open,M,,230,167.5,237.5,635,SBD,Single-ply,9
J. Adams,100,Open,M,,215,162.5,227.5,605,SBD,Single-ply,10
M. O'Connor,100,Open,M,,217.5,137.5,227.5,582.5,SBD,Single-ply,11
R. McCarty,100,Open,M,,197.5,132.5,227.5,557.5,SBD,Single-ply,12
K. Ryder,100,Open,M,,192.5,185,180,557.5,SBD,Single-ply,13
A. Greene,100,Open,M,,200,110,205,515,SBD,Single-ply,14
R. Harris,100,Open,M,,185,117.5,212.5,515,SBD,Single-ply,15
G. Ward,100,Open,M,,,,,,SBD,Single-ply,DQ
C. Claar,100,Open,M,,,,,,SBD,Single-ply,DQ
Bob Edmanson,110,Open,M,,287.5,187.5,315,790,SBD,Single-ply,1
Ken DeLong,110,Open,M,,305,182.5,300,787.5,SBD,Single-ply,2
Karam Mishalani,110,Open,M,,287.5,170,295,752.5,SBD,Single-ply,3
Willie Morris,110,Open,M,,267.5,192.5,275,735,SBD,Single-ply,4
Curtis Walker,110,Open,M,,297.5,192.5,227.5,717.5,SBD,Single-ply,5
J. Hoover,110,Open,M,,230,157.5,227.5,615,SBD,Single-ply,6
J. Hickh,110,Open,M,,227.5,122.5,205,555,SBD,Single-ply,7
John Gamble,125,Open,M,,347.5,235,327.5,910,SBD,Single-ply,1
Jim Burton,125,Open,M,,240,177.5,250,667.5,SBD,Single-ply,2
Brian Musselman,125,Open,M,,227.5,165,250,642.5,SBD,Single-ply,3
Richard Morgan,125,Open,M,,240,155,245,640,SBD,Single-ply,4
Jerry Teague,125,Open,M,,237.5,140,240,617.5,SBD,Single-ply,5
K. Thomas,125,Open,M,,227.5,140,227.5,595,SBD,Single-ply,6
J. Hansel,125,Open,M,,197.5,152.5,227.5,577.5,SBD,Single-ply,7
J. Frowetter,125,Open,M,,215,110,192.5,517.5,SBD,Single-ply,8
John Steward,125+,Open,M,,272.5,152.5,272.5,697.5,SBD,Single-ply,1
Mike McCune,125+,Open,M,,227.5,147.5,250,625,SBD,Single-ply,2
David Oyler,125+,Open,M,18,192.5,102.5,197.5,492.5,SBD,Single-ply,3
Bill Dunn #1,125+,Open,M,,297.5,-245,,,SBD,Single-ply,DQ
