Name,WeightClassKg,Division,Sex,Best3BenchKg,TotalKg,Event,Equipment,Place
K. Blauvelt,52,Open,F,43.09,43.09,B,Raw,1
Bonnie Moffitt,52,Open,F,38.56,38.56,B,Raw,2
G. Romero,52,Open,F,34.02,34.02,B,Raw,3
Hollie Allaire,56,Open,F,56.7,56.7,B,Raw,1
T. Fanizzie,60,Open,F,45.36,45.36,B,Raw,1
Barbara Burns,60+,Open,F,58.97,58.97,B,Raw,1
